{
  "queue_manager":{
    "dir_path" : "/home/thisara/Music/generalized_machine_learning_architecture/images/input_images",
    "metadata_path" : "/home/thisara/Music/generalized_machine_learning_architecture/images/meta_files/meta_data.json",
    "data_type" : "video",
    "save_results" : true,
    "save_original" : false,
    "processed_data_dir" : "/home/thisara/Music/generalized_machine_learning_architecture/images/processed_images",

      "speed" : 40,
      "frame rate of output" : 1,
      "size" : [400,400],
      "save_result_dir": "/home/thisara/Music/generalized_machine_learning_architecture/images/result_images"

  },

  "detector":{
    "model_path" : "/home/thisara/Desktop/generalized_machine_learning_architecture/models/yolo/yolo-coco",
    "threshold": 0.5,
    "confidence": 0.2,
    "classes_list": [0],
    "framework" : "yolo"
  }
}
